…
``` r
homocide_data_raw
```

    ## # A tibble: 52,179 x 12
    ##    uid   reported_date victim_last victim_first victim_race victim_age
    ##    <chr>         <int> <chr>       <chr>        <chr>       <chr>     
    ##  1 Alb-…      20100504 GARCIA      JUAN         Hispanic    78        
    ##  2 Alb-…      20100216 MONTOYA     CAMERON      Hispanic    17        
    ##  3 Alb-…      20100601 SATTERFIELD VIVIANA      White       15        
    ##  4 Alb-…      20100101 MENDIOLA    CARLOS       Hispanic    32        
    ##  5 Alb-…      20100102 MULA        VIVIAN       White       72        
    ##  6 Alb-…      20100126 BOOK        GERALDINE    White       91        
    ##  7 Alb-…      20100127 MALDONADO   DAVID        Hispanic    52        
    ##  8 Alb-…      20100127 MALDONADO   CONNIE       Hispanic    52        
    ##  9 Alb-…      20100130 MARTIN-LEY… GUSTAVO      White       56        
    ## 10 Alb-…      20100210 HERRERA     ISRAEL       Hispanic    43        
    ## # ... with 52,169 more rows, and 6 more variables: victim_sex <chr>,
    ## #   city <chr>, state <chr>, lat <dbl>, lon <dbl>, disposition <chr>
…
``` r
city_results = 
  city_nest %>% 
  mutate(city_homocide = map(city_nest$data, individual_city)) %>% 
  unnest(city_homocide)

city_results
```

    ## # A tibble: 47 x 8
    ##    city_state   data        term        log_OR    OR   ci_l  ci_h  p.value
    ##    <chr>        <list>      <chr>        <dbl> <dbl>  <dbl> <dbl>    <dbl>
    ##  1 Albuquerque… <tibble [3… victim_ra… -0.299  0.741 0.451  1.22   2.38e-1
    ##  2 Atlanta, GA  <tibble [9… victim_ra… -0.284  0.753 0.432  1.31   3.17e-1
    ##  3 Baltimore, … <tibble [2… victim_ra… -0.820  0.441 0.313  0.620  2.68e-6
    ##  4 Baton Rouge… <tibble [4… victim_ra… -0.404  0.668 0.313  1.43   2.96e-1
    ##  5 Birmingham,… <tibble [8… victim_ra…  0.0385 1.04  0.615  1.76   8.86e-1
    ##  6 Boston, MA   <tibble [6… victim_ra… -2.17   0.115 0.0472 0.278  1.72e-6
    ##  7 Buffalo, NY  <tibble [5… victim_ra… -0.942  0.390 0.213  0.715  2.31e-3
    ##  8 Charlotte, … <tibble [6… victim_ra… -0.584  0.558 0.321  0.969  3.83e-2
    ##  9 Chicago, IL  <tibble [5… victim_ra… -0.576  0.562 0.431  0.733  2.07e-5
    ## 10 Cincinnati,… <tibble [6… victim_ra… -1.14   0.318 0.184  0.551  4.28e-5
    ## # ... with 37 more rows
…
